<?xml version="1.0" encoding="utf-8"?>
<svg version="1.1" id="Laag_1" xmlns="http://www.w3.org/2000/svg" xmlns:xlink="http://www.w3.org/1999/xlink" x="0px" y="0px" width="256" height="256"
	 viewBox="0 0 80 80" style="enable-background:new 0 0 80 80;" xml:space="preserve">
<style type="text/css">
	.st0{fill:#FFFFFF;}
</style>
<g>
	<g>
		<g>
			<path class="st0" d="M40,57.7c-2.1,0-3.6-1.6-3.6-3.6V42.6c-2.3-0.3-4.4-0.5-6.8-1c-1.8,4.2-4.4,8.1-7.8,11.4
				c-1.6,1.3-3.6,1.3-5.2-0.3c-1.3-1.6-1.3-3.6,0.3-5.2c2.3-2.3,4.4-5.2,6-8.1c-2.1-0.8-3.9-1.6-5.7-2.6c-3.1,3.6-6.8,6.5-10.9,8.6
				c-1.8,0.8-3.9,0.3-4.9-1.6C0.5,42.1,1,40,2.9,39c3.1-1.6,5.7-3.6,7.8-6.2c-1.8-1.3-3.4-2.9-4.9-4.4c-1.3-1.3-1.3-3.6,0-5.2
				c1.3-1.3,3.6-1.3,5.2,0c2.1,2.1,4.4,3.9,6.8,5.5c13,8.6,31.2,8.6,44.4,0c2.3-1.6,4.7-3.4,6.8-5.5c1.3-1.3,3.6-1.3,5.2,0
				c1.3,1.3,1.3,3.6,0,5.2c-1.6,1.6-3.1,3.1-4.9,4.4c2.3,2.6,4.9,4.7,7.8,6.2c1.8,0.8,2.6,3.1,1.6,4.9c-0.8,1.8-3.1,2.6-4.9,1.6
				c-4.2-2.1-7.8-4.9-10.7-8.6c-1.8,1-3.9,1.8-5.7,2.6c1.3,3.1,3.4,5.7,6,8.1c1.6,1.3,1.6,3.6,0.3,5.2c-1.3,1.6-3.6,1.6-5.2,0.3
				c-3.4-3.1-6-7-7.8-11.4c-2.1,0.5-4.4,0.8-6.8,1v11.4C43.7,55.9,42.1,57.7,40,57.7z"/>
		</g>
	</g>
</g>
</svg>
